{
    "KPlugin": {
        "Description": "Mail Summary Setup",
        "Description[ar]": "إعداد ملخّص البريد",
        "Description[az]": "Poçt yekununun təyin edilməsi",
        "Description[ca@valencia]": "Configuració del resum del correu",
        "Description[ca]": "Configuració del resum del correu",
        "Description[cs]": "Nastavení souhrnu pošty",
        "Description[en_GB]": "Mail Summary Setup",
        "Description[es]": "Configuración del resumen de correo",
        "Description[fr]": "Configuration du résumé de courriel",
        "Description[ia]": "Configuration de summario de posta",
        "Description[it]": "Impostazioni sommario posta",
        "Description[nl]": "E-mail Overzichts-instellingen",
        "Description[pl]": "Ustawienia podsumowania poczty",
        "Description[pt_BR]": "Configuração do resumo de mensagens",
        "Description[ru]": "Настройка дайджеста почты",
        "Description[sl]": "Nastavitve povzetka pošte",
        "Description[sv]": "Inställning av postöversikt",
        "Description[uk]": "Налаштування підсумку пошти",
        "Description[x-test]": "xxMail Summary Setupxx",
        "Icon": "kmail",
        "Name": "New Messages",
        "Name[ar]": "رسائل جديدة",
        "Name[az]": "Yeni məktublar",
        "Name[be]": "Новыя паведамленні",
        "Name[bg]": "MSN",
        "Name[bs]": "Nove poruke",
        "Name[ca@valencia]": "Missatges nous",
        "Name[ca]": "Missatges nous",
        "Name[cs]": "Nové zprávy",
        "Name[da]": "Nye breve",
        "Name[de]": "Neue Nachrichten",
        "Name[el]": "Νέα μηνύματα",
        "Name[en_GB]": "New Messages",
        "Name[es]": "Mensajes nuevos",
        "Name[et]": "Uued kirjad",
        "Name[eu]": "Mezu berriak",
        "Name[fa]": "پیامهای جدید",
        "Name[fi]": "Uudet viestit",
        "Name[fr]": "Nouveaux messages",
        "Name[ga]": "Teachtaireachtaí Nua",
        "Name[gl]": "Mensaxes novas",
        "Name[hu]": "Új üzenetek",
        "Name[ia]": "Nove messages",
        "Name[it]": "Nuovi messaggi",
        "Name[ja]": "未読メッセージ",
        "Name[kk]": "Жаңа хаттар",
        "Name[km]": "សារ​ថ្មី",
        "Name[ko]": "새 메시지",
        "Name[lt]": "Nauji laiškai",
        "Name[lv]": "Jaunas vēstules",
        "Name[mr]": "नवीन संदेश",
        "Name[nb]": "Nye meldinger",
        "Name[nds]": "Nieg Narichten",
        "Name[ne]": "नयाँ सन्देश",
        "Name[nl]": "Nieuwe berichten",
        "Name[nn]": "Nye meldingar",
        "Name[pa]": "ਨਵੇਂ ਸੁਨੇਹੇ",
        "Name[pl]": "Nowe wiadomości",
        "Name[pt]": "Novas Mensagens",
        "Name[pt_BR]": "Novas mensagens",
        "Name[ro]": "Mesaje noi",
        "Name[ru]": "Новые письма",
        "Name[sk]": "Nové správy",
        "Name[sl]": "Nova sporočila",
        "Name[sr@ijekavian]": "Нове поруке",
        "Name[sr@ijekavianlatin]": "Nove poruke",
        "Name[sr@latin]": "Nove poruke",
        "Name[sr]": "Нове поруке",
        "Name[sv]": "Nya brev",
        "Name[ta]": "புதிய அஞ்சல்கள்",
        "Name[th]": "จดหมายใหม่",
        "Name[tr]": "Yeni İletiler",
        "Name[ug]": "يېڭى ئۇچۇرلار",
        "Name[uk]": "Нові повідомлення",
        "Name[wa]": "Noveas messaedjes",
        "Name[x-test]": "xxNew Messagesxx",
        "Name[zh_CN]": "新邮件",
        "Name[zh_TW]": "新訊息",
        "ServiceTypes": [
            "KCModule"
        ]
    },
    "X-KDE-FactoryName": "kmailsummary",
    "X-KDE-Weight": 200
}
